%!PS-Adobe-3.0 EPSF-3.0 
%%BoundingBox: 0 0 390 63
%%Pages: 0
%%Creator: LibreOffice 5.4
%%Title: none
%%CreationDate: none
%%LanguageLevel: 2
%%EndComments
%%BeginProlog
%%BeginResource: procset SDRes-Prolog 1.0 0
/b4_inc_state save def
/dict_count countdictstack def
/op_count count 1 sub def
userdict begin
0 setgray 0 setlinecap 1 setlinewidth 0 setlinejoin 10 setmiterlimit[] 0 setdash newpath
/languagelevel where {pop languagelevel 1 ne {false setstrokeadjust false setoverprint} if} if
/bdef {bind def} bind def
/c {setgray} bdef
/l {neg lineto} bdef
/rl {neg rlineto} bdef
/lc {setlinecap} bdef
/lj {setlinejoin} bdef
/lw {setlinewidth} bdef
/ml {setmiterlimit} bdef
/ld {setdash} bdef
/m {neg moveto} bdef
/ct {6 2 roll neg 6 2 roll neg 6 2 roll neg curveto} bdef
/r {rotate} bdef
/t {neg translate} bdef
/s {scale} bdef
/sw {show} bdef
/gs {gsave} bdef
/gr {grestore} bdef
/f {findfont dup length dict begin
{1 index /FID ne {def} {pop pop} ifelse} forall /Encoding ISOLatin1Encoding def
currentdict end /NFont exch definefont pop /NFont findfont} bdef
/p {closepath} bdef
/sf {scalefont setfont} bdef
/ef {eofill}bdef
/pc {closepath stroke}bdef
/ps {stroke}bdef
/pum {matrix currentmatrix}bdef
/pom {setmatrix}bdef
/bs {/aString exch def /nXOfs exch def /nWidth exch def currentpoint nXOfs 0 rmoveto pum nWidth aString stringwidth pop div 1 scale aString show pom moveto} bdef
%%EndResource
%%EndProlog
%%BeginSetup
%%EndSetup
%%Page: 1 1
%%BeginPageSetup
%%EndPageSetup
pum
0.02837 0.02855 s 
0 -2206 t
/tm matrix currentmatrix def
tm setmatrix
-6815 -6585 t 
1 1 s 
gs
13364 7220 m 13796 7220 l 13796 7690 l 13364 7690 l 13364 7220 l eoclip newpath
pum
13470 7590 t
0.000 c 86 -22 m  96 -22 106 -23 115 -26 ct 125 -29 133 -32 140 -37 ct 164 -177 l 
150 -181 136 -183 122 -183 ct 109 -183 96 -178 85 -168 ct 74 -158 66 -144 59 -127 ct 
53 -109 50 -91 50 -71 ct 50 -55 53 -43 59 -34 ct 66 -26 75 -22 86 -22 ct p
138 -22 m  128 -14 117 -8 105 -3 ct 93 2 82 4 72 4 ct 53 4 39 -2 29 -14 ct 19 -25 14 -43 14 -66 ct 
14 -91 19 -114 29 -134 ct 39 -155 53 -171 71 -182 ct 89 -193 109 -199 131 -199 ct 
141 -199 153 -198 167 -196 ct 181 -194 192 -192 201 -190 ct 153 76 l  178 81 l 
176 90 l  116 90 l  131 11 l  133 -1 135 -12 138 -22 ct p ef
pom
gr
gs
15045 6687 m 16264 6687 l 16264 7076 l 15045 7076 l 15045 6687 l eoclip newpath
pum
15153 7005 t
0.000 c 73 -18 m  81 -18 89 -19 97 -22 ct 105 -24 112 -27 118 -31 ct 139 -148 l 
127 -151 115 -152 103 -152 ct 92 -152 81 -148 72 -140 ct 63 -131 55 -120 50 -105 ct 
45 -91 42 -75 42 -59 ct 42 -46 45 -35 50 -29 ct 55 -22 63 -18 73 -18 ct p
117 -18 m  108 -12 98 -6 88 -2 ct 79 1 69 3 61 3 ct 45 3 33 -1 24 -11 ct 16 -21 12 -35 12 -55 ct 
12 -75 16 -94 24 -111 ct 33 -129 44 -142 60 -151 ct 75 -161 92 -165 111 -165 ct 
119 -165 129 -165 141 -163 ct 153 -162 162 -160 170 -158 ct 129 63 l  150 67 l 
149 75 l  98 75 l  110 9 l  112 -1 114 -10 117 -18 ct p ef
pom
pum
15395 7005 t
67 -7 m  67 8 62 20 52 31 ct 43 41 29 49 12 54 ct 12 41 l  33 34 44 24 44 12 ct 
44 9 43 6 41 5 ct 39 3 36 2 33 0 ct 31 -2 28 -4 26 -6 ct 24 -9 22 -12 22 -17 ct 22 -23 24 -28 28 -31 ct 
32 -35 37 -36 43 -36 ct 51 -36 56 -34 60 -28 ct 64 -23 67 -16 67 -7 ct p ef
pom
pum
15529 7005 t
131 -128 m  131 -133 130 -138 127 -141 ct 124 -144 120 -146 114 -146 ct 105 -146 96 -142 86 -135 ct 
76 -128 67 -119 61 -108 ct 42 0 l  13 0 l  39 -149 l  19 -154 l  20 -161 l 
68 -161 l  64 -128 l  74 -141 84 -150 94 -156 ct 104 -162 115 -165 125 -165 ct 
137 -165 145 -162 151 -156 ct 157 -150 160 -141 160 -129 ct 160 -128 160 -125 159 -122 ct 
159 -119 153 -82 140 -12 ct 163 -8 l  162 0 l  110 0 l  127 -100 l  130 -114 131 -124 131 -128 ct 
p ef
pom
pum
15744 7005 t
67 -7 m  67 8 62 20 52 31 ct 43 41 29 49 12 54 ct 12 41 l  33 34 44 24 44 12 ct 
44 9 43 6 41 5 ct 39 3 36 2 33 0 ct 31 -2 28 -4 26 -6 ct 24 -9 22 -12 22 -17 ct 22 -23 24 -28 28 -31 ct 
32 -35 37 -36 43 -36 ct 51 -36 56 -34 60 -28 ct 64 -23 67 -16 67 -7 ct p ef
pom
pum
15879 7005 t
111 -6 m  128 -6 143 -11 155 -21 ct 167 -31 177 -47 184 -67 ct 193 -93 195 -114 189 -130 ct 
183 -146 171 -154 152 -154 ct 136 -154 121 -148 108 -137 ct 95 -126 85 -110 78 -90 ct 
69 -65 68 -45 74 -29 ct 80 -14 92 -6 111 -6 ct p
204 -141 m  215 -134 222 -126 225 -115 ct 228 -105 227 -93 222 -78 ct 214 -54 198 -35 176 -20 ct 
154 -5 129 3 101 3 ct 75 3 56 -5 45 -20 ct 33 -35 32 -54 40 -77 ct 48 -103 64 -123 87 -138 ct 
109 -154 135 -161 163 -161 ct 169 -161 180 -161 195 -160 ct 211 -159 224 -159 234 -159 ct 
243 -159 251 -160 256 -161 ct 261 -163 265 -165 266 -168 ct 273 -168 l  268 -157 264 -150 258 -146 ct 
253 -142 244 -140 233 -140 ct 231 -140 228 -140 225 -140 ct 221 -141 215 -141 205 -142 ct 
205 -142 204 -142 204 -142 ct 204 -141 204 -141 204 -141 ct p ef
pom
gr
gs
0.996 c 14079 7347 m  15318 7347 l  15318 7220 l  15731 7474 l  15318 7728 l 
15318 7601 l  14079 7601 l  14079 7347 l  p
15731 7220 m  15731 7220 l  p
14079 7728 m  14079 7728 l  p ef
gr
gs
0 lw 1 lj 0.000 c 14078 7346 m  15317 7346 l  15317 7219 l  15730 7473 l 
15317 7728 l  15317 7600 l  14078 7600 l  14078 7346 l  pc
gr
gs
0 lw 1 lj 0.000 c 15730 7219 m  15730 7219 l  pc
gr
gs
0 lw 1 lj 0.000 c 14078 7728 m  14078 7728 l  pc
gr
pum
16456 7449 t
0.000 c 304 -96 m  304 -65 293 -42 271 -25 ct 249 -8 218 0 179 0 ct 41 0 l  41 -340 l 
164 -340 l  244 -340 284 -312 284 -257 ct 284 -237 278 -220 267 -206 ct 256 -193 240 -183 219 -179 ct 
246 -176 267 -167 282 -152 ct 297 -137 304 -118 304 -96 ct p
238 -252 m  238 -270 231 -283 219 -291 ct 206 -299 188 -303 164 -303 ct 87 -303 l 
87 -195 l  164 -195 l  189 -195 207 -200 220 -209 ct 232 -218 238 -232 238 -252 ct 
p
257 -99 m  257 -139 229 -159 173 -159 ct 87 -159 l  87 -37 l  176 -37 l  205 -37 225 -42 238 -53 ct 
251 -63 257 -79 257 -99 ct p ef
397 -122 m  397 -92 403 -69 415 -52 ct 428 -36 446 -28 470 -28 ct 488 -28 503 -32 515 -39 ct 
526 -47 534 -56 538 -68 ct 576 -57 l  560 -16 525 5 470 5 ct 431 5 402 -7 381 -30 ct 
361 -53 351 -87 351 -132 ct 351 -175 361 -208 381 -231 ct 402 -254 430 -266 468 -266 ct 
545 -266 583 -220 583 -128 ct 583 -122 l  397 -122 l  p
538 -155 m  536 -182 529 -202 517 -215 ct 506 -228 489 -234 467 -234 ct 446 -234 429 -227 417 -213 ct 
405 -199 398 -180 397 -155 ct 538 -155 l  p ef
738 -2 m  724 2 709 4 695 4 ct 660 4 643 -16 643 -55 ct 643 -229 l  612 -229 l 
612 -261 l  644 -261 l  657 -319 l  686 -319 l  686 -261 l  734 -261 l 
734 -229 l  686 -229 l  686 -65 l  686 -52 688 -44 692 -39 ct 696 -34 703 -31 713 -31 ct 
719 -31 727 -32 738 -34 ct 738 -2 l  p ef
878 -2 m  864 2 849 4 835 4 ct 800 4 783 -16 783 -55 ct 783 -229 l  752 -229 l 
752 -261 l  784 -261 l  797 -319 l  826 -319 l  826 -261 l  874 -261 l 
874 -229 l  826 -229 l  826 -65 l  826 -52 828 -44 832 -39 ct 836 -34 843 -31 853 -31 ct 
859 -31 867 -32 878 -34 ct 878 -2 l  p ef
952 -122 m  952 -92 958 -69 970 -52 ct 983 -36 1001 -28 1025 -28 ct 1043 -28 1058 -32 1070 -39 ct 
1081 -47 1089 -56 1093 -68 ct 1131 -57 l  1115 -16 1080 5 1025 5 ct 986 5 957 -7 936 -30 ct 
916 -53 906 -87 906 -132 ct 906 -175 916 -208 936 -231 ct 957 -254 985 -266 1023 -266 ct 
1100 -266 1138 -220 1138 -128 ct 1138 -122 l  952 -122 l  p
1093 -155 m  1091 -182 1084 -202 1072 -215 ct 1061 -228 1044 -234 1022 -234 ct 
1001 -234 984 -227 972 -213 ct 960 -199 953 -180 952 -155 ct 1093 -155 l  p ef
1194 0 m  1194 -200 l  1194 -219 1194 -239 1193 -261 ct 1234 -261 l  1235 -232 1236 -214 1236 -208 ct 
1237 -208 l  1244 -230 1252 -246 1261 -254 ct 1270 -262 1283 -266 1299 -266 ct 
1305 -266 1311 -265 1317 -264 ct 1317 -224 l  1311 -225 1303 -226 1294 -226 ct 
1275 -226 1262 -218 1252 -203 ct 1243 -187 1238 -165 1238 -136 ct 1238 0 l  1194 0 l 
p ef
1772 -94 m  1772 -62 1760 -38 1735 -21 ct 1711 -4 1676 5 1632 5 ct 1549 5 1501 -24 1487 -81 ct 
1532 -90 l  1537 -70 1548 -55 1565 -45 ct 1582 -36 1605 -31 1633 -31 ct 1663 -31 1686 -36 1702 -46 ct 
1719 -57 1727 -72 1727 -91 ct 1727 -102 1724 -111 1719 -118 ct 1714 -125 1707 -131 1698 -135 ct 
1689 -140 1678 -144 1665 -147 ct 1652 -150 1638 -153 1623 -157 ct 1596 -163 1575 -169 1561 -175 ct 
1547 -181 1536 -187 1528 -195 ct 1520 -202 1514 -210 1510 -220 ct 1506 -230 1503 -241 1503 -254 ct 
1503 -283 1515 -306 1537 -321 ct 1559 -337 1591 -345 1633 -345 ct 1671 -345 1701 -339 1721 -327 ct 
1742 -315 1756 -295 1764 -267 ct 1719 -259 l  1714 -277 1704 -290 1690 -298 ct 
1676 -306 1657 -310 1632 -310 ct 1605 -310 1584 -306 1570 -297 ct 1555 -288 1548 -274 1548 -256 ct 
1548 -246 1551 -237 1557 -230 ct 1562 -224 1570 -218 1581 -213 ct 1591 -208 1612 -202 1643 -196 ct 
1654 -193 1664 -191 1675 -188 ct 1685 -186 1695 -183 1704 -179 ct 1714 -176 1723 -172 1731 -167 ct 
1739 -162 1747 -157 1753 -150 ct 1759 -143 1764 -135 1767 -126 ct 1771 -117 1772 -106 1772 -94 ct 
p ef
1862 -122 m  1862 -92 1868 -69 1880 -52 ct 1893 -36 1911 -28 1935 -28 ct 1953 -28 1968 -32 1980 -39 ct 
1991 -47 1999 -56 2003 -68 ct 2041 -57 l  2025 -16 1990 5 1935 5 ct 1896 5 1867 -7 1846 -30 ct 
1826 -53 1816 -87 1816 -132 ct 1816 -175 1826 -208 1846 -231 ct 1867 -254 1895 -266 1933 -266 ct 
2010 -266 2048 -220 2048 -128 ct 2048 -122 l  1862 -122 l  p
2003 -155 m  2001 -182 1994 -202 1982 -215 ct 1971 -228 1954 -234 1932 -234 ct 
1911 -234 1894 -227 1882 -213 ct 1870 -199 1863 -180 1862 -155 ct 2003 -155 l 
p ef
2136 -132 m  2136 -97 2142 -71 2153 -54 ct 2164 -37 2180 -29 2202 -29 ct 2218 -29 2231 -33 2241 -42 ct 
2251 -50 2258 -63 2260 -80 ct 2304 -77 l  2301 -52 2290 -32 2272 -17 ct 2254 -2 2231 5 2203 5 ct 
2167 5 2139 -7 2120 -30 ct 2101 -53 2091 -86 2091 -131 ct 2091 -175 2101 -208 2120 -231 ct 
2139 -254 2167 -266 2203 -266 ct 2230 -266 2252 -259 2269 -245 ct 2287 -232 2298 -213 2303 -188 ct 
2258 -185 l  2256 -199 2250 -211 2241 -219 ct 2232 -228 2219 -232 2202 -232 ct 
2179 -232 2162 -224 2152 -209 ct 2141 -194 2136 -168 2136 -132 ct p ef
2396 -261 m  2396 -96 l  2396 -79 2397 -65 2401 -56 ct 2404 -46 2410 -39 2417 -35 ct 
2424 -31 2435 -29 2450 -29 ct 2471 -29 2487 -36 2499 -50 ct 2511 -65 2517 -85 2517 -110 ct 
2517 -261 l  2561 -261 l  2561 -56 l  2561 -25 2561 -7 2562 0 ct 2521 0 l 
2521 -1 2521 -3 2521 -7 ct 2521 -10 2520 -14 2520 -19 ct 2520 -23 2520 -32 2519 -45 ct 
2519 -45 l  2509 -27 2497 -14 2484 -6 ct 2471 1 2454 5 2435 5 ct 2406 5 2385 -2 2372 -16 ct 
2359 -31 2352 -54 2352 -87 ct 2352 -261 l  2396 -261 l  p ef
2629 0 m  2629 -200 l  2629 -219 2629 -239 2628 -261 ct 2669 -261 l  2670 -232 2671 -214 2671 -208 ct 
2672 -208 l  2679 -230 2687 -246 2696 -254 ct 2705 -262 2718 -266 2734 -266 ct 
2740 -266 2746 -265 2752 -264 ct 2752 -224 l  2746 -225 2738 -226 2729 -226 ct 
2710 -226 2697 -218 2687 -203 ct 2678 -187 2673 -165 2673 -136 ct 2673 0 l  2629 0 l 
p ef
2793 -317 m  2793 -358 l  2837 -358 l  2837 -317 l  2793 -317 l  p
2793 0 m  2793 -261 l  2837 -261 l  2837 0 l  2793 0 l  p ef
3003 -2 m  2989 2 2974 4 2960 4 ct 2925 4 2908 -16 2908 -55 ct 2908 -229 l  2877 -229 l 
2877 -261 l  2909 -261 l  2922 -319 l  2951 -319 l  2951 -261 l  2999 -261 l 
2999 -229 l  2951 -229 l  2951 -65 l  2951 -52 2953 -44 2957 -39 ct 2961 -34 2968 -31 2978 -31 ct 
2984 -31 2992 -32 3003 -34 ct 3003 -2 l  p ef
3056 103 m  3044 103 3034 102 3026 100 ct 3026 68 l  3032 69 3039 69 3046 69 ct 
3073 69 3095 49 3111 9 ct 3115 -1 l  3011 -261 l  3058 -261 l  3113 -117 l 
3113 -115 3114 -112 3115 -109 ct 3117 -106 3120 -95 3126 -77 ct 3132 -59 3136 -49 3136 -47 ct 
3153 -95 l  3210 -261 l  3256 -261 l  3156 0 l  3145 28 3135 49 3126 62 ct 
3116 76 3106 86 3095 93 ct 3083 100 3070 103 3056 103 ct p ef
pom
pum
16016 8003 t
304 -96 m  304 -65 293 -42 271 -25 ct 249 -8 218 0 179 0 ct 41 0 l  41 -340 l 
164 -340 l  244 -340 284 -312 284 -257 ct 284 -237 278 -220 267 -206 ct 256 -193 240 -183 219 -179 ct 
246 -176 267 -167 282 -152 ct 297 -137 304 -118 304 -96 ct p
238 -252 m  238 -270 231 -283 219 -291 ct 206 -299 188 -303 164 -303 ct 87 -303 l 
87 -195 l  164 -195 l  189 -195 207 -200 220 -209 ct 232 -218 238 -232 238 -252 ct 
p
257 -99 m  257 -139 229 -159 173 -159 ct 87 -159 l  87 -37 l  176 -37 l  205 -37 225 -42 238 -53 ct 
251 -63 257 -79 257 -99 ct p ef
397 -122 m  397 -92 403 -69 415 -52 ct 428 -36 446 -28 470 -28 ct 488 -28 503 -32 515 -39 ct 
526 -47 534 -56 538 -68 ct 576 -57 l  560 -16 525 5 470 5 ct 431 5 402 -7 381 -30 ct 
361 -53 351 -87 351 -132 ct 351 -175 361 -208 381 -231 ct 402 -254 430 -266 468 -266 ct 
545 -266 583 -220 583 -128 ct 583 -122 l  397 -122 l  p
538 -155 m  536 -182 529 -202 517 -215 ct 506 -228 489 -234 467 -234 ct 446 -234 429 -227 417 -213 ct 
405 -199 398 -180 397 -155 ct 538 -155 l  p ef
738 -2 m  724 2 709 4 695 4 ct 660 4 643 -16 643 -55 ct 643 -229 l  612 -229 l 
612 -261 l  644 -261 l  657 -319 l  686 -319 l  686 -261 l  734 -261 l 
734 -229 l  686 -229 l  686 -65 l  686 -52 688 -44 692 -39 ct 696 -34 703 -31 713 -31 ct 
719 -31 727 -32 738 -34 ct 738 -2 l  p ef
878 -2 m  864 2 849 4 835 4 ct 800 4 783 -16 783 -55 ct 783 -229 l  752 -229 l 
752 -261 l  784 -261 l  797 -319 l  826 -319 l  826 -261 l  874 -261 l 
874 -229 l  826 -229 l  826 -65 l  826 -52 828 -44 832 -39 ct 836 -34 843 -31 853 -31 ct 
859 -31 867 -32 878 -34 ct 878 -2 l  p ef
952 -122 m  952 -92 958 -69 970 -52 ct 983 -36 1001 -28 1025 -28 ct 1043 -28 1058 -32 1070 -39 ct 
1081 -47 1089 -56 1093 -68 ct 1131 -57 l  1115 -16 1080 5 1025 5 ct 986 5 957 -7 936 -30 ct 
916 -53 906 -87 906 -132 ct 906 -175 916 -208 936 -231 ct 957 -254 985 -266 1023 -266 ct 
1100 -266 1138 -220 1138 -128 ct 1138 -122 l  952 -122 l  p
1093 -155 m  1091 -182 1084 -202 1072 -215 ct 1061 -228 1044 -234 1022 -234 ct 
1001 -234 984 -227 972 -213 ct 960 -199 953 -180 952 -155 ct 1093 -155 l  p ef
1194 0 m  1194 -200 l  1194 -219 1194 -239 1193 -261 ct 1234 -261 l  1235 -232 1236 -214 1236 -208 ct 
1237 -208 l  1244 -230 1252 -246 1261 -254 ct 1270 -262 1283 -266 1299 -266 ct 
1305 -266 1311 -265 1317 -264 ct 1317 -224 l  1311 -225 1303 -226 1294 -226 ct 
1275 -226 1262 -218 1252 -203 ct 1243 -187 1238 -165 1238 -136 ct 1238 0 l  1194 0 l 
p ef
1656 -308 m  1619 -308 1589 -296 1568 -272 ct 1547 -247 1537 -214 1537 -172 ct 
1537 -130 1548 -96 1570 -71 ct 1591 -46 1621 -33 1658 -33 ct 1706 -33 1742 -57 1766 -104 ct 
1803 -85 l  1789 -56 1770 -33 1744 -18 ct 1719 -3 1689 5 1656 5 ct 1622 5 1592 -2 1567 -16 ct 
1542 -31 1523 -51 1510 -77 ct 1497 -104 1490 -135 1490 -171 ct 1490 -226 1505 -268 1534 -299 ct 
1563 -330 1604 -345 1656 -345 ct 1692 -345 1722 -338 1746 -324 ct 1771 -310 1789 -288 1800 -261 ct 
1756 -246 l  1748 -266 1736 -281 1718 -292 ct 1701 -303 1680 -308 1656 -308 ct 
p ef
2074 -131 m  2074 -85 2064 -51 2044 -29 ct 2024 -6 1995 5 1956 5 ct 1918 5 1889 -7 1870 -30 ct 
1851 -53 1841 -87 1841 -131 ct 1841 -221 1880 -266 1958 -266 ct 1998 -266 2027 -255 2046 -233 ct 
2065 -211 2074 -177 2074 -131 ct p
2029 -131 m  2029 -167 2023 -193 2013 -209 ct 2002 -226 1984 -234 1959 -234 ct 
1933 -234 1915 -226 1903 -209 ct 1892 -192 1886 -166 1886 -131 ct 1886 -96 1892 -70 1903 -53 ct 
1914 -36 1932 -27 1956 -27 ct 1982 -27 2001 -35 2012 -52 ct 2023 -69 2029 -95 2029 -131 ct 
p ef
2130 0 m  2130 -200 l  2130 -219 2130 -239 2129 -261 ct 2170 -261 l  2171 -232 2172 -214 2172 -208 ct 
2173 -208 l  2180 -230 2188 -246 2197 -254 ct 2206 -262 2219 -266 2235 -266 ct 
2241 -266 2247 -265 2253 -264 ct 2253 -224 l  2247 -225 2239 -226 2230 -226 ct 
2211 -226 2198 -218 2188 -203 ct 2179 -187 2174 -165 2174 -136 ct 2174 0 l  2130 0 l 
p ef
2295 0 m  2295 -200 l  2295 -219 2295 -239 2294 -261 ct 2335 -261 l  2336 -232 2337 -214 2337 -208 ct 
2338 -208 l  2345 -230 2353 -246 2362 -254 ct 2371 -262 2384 -266 2400 -266 ct 
2406 -266 2412 -265 2418 -264 ct 2418 -224 l  2412 -225 2404 -226 2395 -226 ct 
2376 -226 2363 -218 2353 -203 ct 2344 -187 2339 -165 2339 -136 ct 2339 0 l  2295 0 l 
p ef
2493 -122 m  2493 -92 2499 -69 2511 -52 ct 2524 -36 2542 -28 2566 -28 ct 2584 -28 2599 -32 2611 -39 ct 
2622 -47 2630 -56 2634 -68 ct 2672 -57 l  2656 -16 2621 5 2566 5 ct 2527 5 2498 -7 2477 -30 ct 
2457 -53 2447 -87 2447 -132 ct 2447 -175 2457 -208 2477 -231 ct 2498 -254 2526 -266 2564 -266 ct 
2641 -266 2679 -220 2679 -128 ct 2679 -122 l  2493 -122 l  p
2634 -155 m  2632 -182 2625 -202 2613 -215 ct 2602 -228 2585 -234 2563 -234 ct 
2542 -234 2525 -227 2513 -213 ct 2501 -199 2494 -180 2493 -155 ct 2634 -155 l 
p ef
2767 -132 m  2767 -97 2773 -71 2784 -54 ct 2795 -37 2811 -29 2833 -29 ct 2849 -29 2862 -33 2872 -42 ct 
2882 -50 2889 -63 2891 -80 ct 2935 -77 l  2932 -52 2921 -32 2903 -17 ct 2885 -2 2862 5 2834 5 ct 
2798 5 2770 -7 2751 -30 ct 2732 -53 2722 -86 2722 -131 ct 2722 -175 2732 -208 2751 -231 ct 
2770 -254 2798 -266 2834 -266 ct 2861 -266 2883 -259 2900 -245 ct 2918 -232 2929 -213 2934 -188 ct 
2889 -185 l  2887 -199 2881 -211 2872 -219 ct 2863 -228 2850 -232 2833 -232 ct 
2810 -232 2793 -224 2783 -209 ct 2772 -194 2767 -168 2767 -132 ct p ef
3084 -2 m  3070 2 3055 4 3041 4 ct 3006 4 2989 -16 2989 -55 ct 2989 -229 l  2958 -229 l 
2958 -261 l  2990 -261 l  3003 -319 l  3032 -319 l  3032 -261 l  3080 -261 l 
3080 -229 l  3032 -229 l  3032 -65 l  3032 -52 3034 -44 3038 -39 ct 3042 -34 3049 -31 3059 -31 ct 
3065 -31 3073 -32 3084 -34 ct 3084 -2 l  p ef
3289 0 m  3289 -165 l  3289 -182 3288 -196 3284 -205 ct 3281 -215 3275 -222 3268 -226 ct 
3261 -230 3250 -232 3235 -232 ct 3214 -232 3198 -225 3186 -211 ct 3174 -196 3168 -176 3168 -151 ct 
3168 0 l  3124 0 l  3124 -205 l  3124 -236 3124 -254 3123 -261 ct 3164 -261 l 
3164 -260 3164 -258 3164 -255 ct 3164 -251 3165 -247 3165 -242 ct 3165 -238 3165 -229 3166 -217 ct 
3166 -217 l  3176 -235 3188 -247 3201 -255 ct 3214 -262 3231 -266 3250 -266 ct 
3279 -266 3300 -259 3313 -245 ct 3326 -230 3333 -207 3333 -174 ct 3333 0 l  3289 0 l 
p ef
3433 -122 m  3433 -92 3439 -69 3451 -52 ct 3464 -36 3482 -28 3506 -28 ct 3524 -28 3539 -32 3551 -39 ct 
3562 -47 3570 -56 3574 -68 ct 3612 -57 l  3596 -16 3561 5 3506 5 ct 3467 5 3438 -7 3417 -30 ct 
3397 -53 3387 -87 3387 -132 ct 3387 -175 3397 -208 3417 -231 ct 3438 -254 3466 -266 3504 -266 ct 
3581 -266 3619 -220 3619 -128 ct 3619 -122 l  3433 -122 l  p
3574 -155 m  3572 -182 3565 -202 3553 -215 ct 3542 -228 3525 -234 3503 -234 ct 
3482 -234 3465 -227 3453 -213 ct 3441 -199 3434 -180 3433 -155 ct 3574 -155 l 
p ef
3870 -72 m  3870 -47 3861 -28 3842 -15 ct 3824 -2 3798 5 3764 5 ct 3732 5 3707 0 3689 -11 ct 
3672 -22 3660 -38 3655 -61 ct 3693 -69 l  3697 -55 3704 -44 3716 -38 ct 3728 -31 3744 -28 3764 -28 ct 
3786 -28 3802 -31 3813 -38 ct 3823 -45 3828 -55 3828 -69 ct 3828 -79 3824 -87 3817 -94 ct 
3810 -100 3799 -105 3783 -110 ct 3752 -118 l  3727 -124 3709 -131 3699 -137 ct 
3688 -143 3680 -150 3674 -159 ct 3668 -168 3665 -179 3665 -192 ct 3665 -216 3674 -234 3691 -246 ct 
3708 -259 3732 -265 3765 -265 ct 3794 -265 3816 -260 3833 -250 ct 3850 -240 3861 -223 3866 -201 ct 
3826 -196 l  3824 -208 3818 -217 3807 -223 ct 3797 -229 3782 -232 3765 -232 ct 
3745 -232 3731 -229 3721 -223 ct 3712 -217 3707 -208 3707 -196 ct 3707 -189 3709 -183 3713 -178 ct 
3717 -173 3723 -169 3730 -166 ct 3738 -162 3754 -158 3778 -152 ct 3801 -146 3818 -140 3828 -136 ct 
3838 -131 3846 -125 3852 -119 ct 3858 -113 3862 -106 3865 -99 ct 3869 -91 3870 -82 3870 -72 ct 
p ef
4119 -72 m  4119 -47 4110 -28 4091 -15 ct 4073 -2 4047 5 4013 5 ct 3981 5 3956 0 3938 -11 ct 
3921 -22 3909 -38 3904 -61 ct 3942 -69 l  3946 -55 3953 -44 3965 -38 ct 3977 -31 3993 -28 4013 -28 ct 
4035 -28 4051 -31 4062 -38 ct 4072 -45 4077 -55 4077 -69 ct 4077 -79 4073 -87 4066 -94 ct 
4059 -100 4048 -105 4032 -110 ct 4001 -118 l  3976 -124 3958 -131 3948 -137 ct 
3937 -143 3929 -150 3923 -159 ct 3917 -168 3914 -179 3914 -192 ct 3914 -216 3923 -234 3940 -246 ct 
3957 -259 3981 -265 4014 -265 ct 4043 -265 4065 -260 4082 -250 ct 4099 -240 4110 -223 4115 -201 ct 
4075 -196 l  4073 -208 4067 -217 4056 -223 ct 4046 -229 4031 -232 4014 -232 ct 
3994 -232 3980 -229 3970 -223 ct 3961 -217 3956 -208 3956 -196 ct 3956 -189 3958 -183 3962 -178 ct 
3966 -173 3972 -169 3979 -166 ct 3987 -162 4003 -158 4027 -152 ct 4050 -146 4067 -140 4077 -136 ct 
4087 -131 4095 -125 4101 -119 ct 4107 -113 4111 -106 4114 -99 ct 4118 -91 4119 -82 4119 -72 ct 
p ef
pom
pum
13949 7028 t
29 0 m  29 -243 l  62 -243 l  62 -27 l  184 -27 l  184 0 l  29 0 l  p ef
266 3 m  248 3 233 -2 224 -12 ct 215 -22 210 -35 210 -52 ct 210 -72 216 -86 229 -97 ct 
242 -107 262 -113 290 -113 ct 332 -114 l  332 -124 l  332 -140 329 -150 322 -157 ct 
316 -164 306 -167 292 -167 ct 278 -167 268 -165 262 -160 ct 256 -155 252 -147 251 -137 ct 
218 -140 l  224 -173 248 -190 293 -190 ct 316 -190 334 -185 346 -174 ct 358 -163 363 -148 363 -127 ct 
363 -47 l  363 -38 365 -31 367 -26 ct 369 -21 374 -19 381 -19 ct 384 -19 387 -19 391 -20 ct 
391 -1 l  383 1 375 2 367 2 ct 356 2 347 -1 342 -7 ct 337 -13 334 -23 333 -36 ct 
332 -36 l  324 -22 315 -12 304 -6 ct 294 0 281 3 266 3 ct p
273 -20 m  285 -20 295 -23 304 -28 ct 312 -33 319 -40 324 -49 ct 330 -58 332 -67 332 -77 ct 
332 -92 l  298 -91 l  284 -91 273 -90 265 -87 ct 258 -84 252 -80 248 -74 ct 
244 -68 242 -61 242 -52 ct 242 -42 245 -34 250 -28 ct 255 -23 263 -20 273 -20 ct 
p ef
414 0 m  414 -143 l  414 -157 413 -171 413 -187 ct 442 -187 l  443 -166 443 -153 443 -148 ct 
444 -148 l  449 -164 455 -175 461 -181 ct 468 -187 477 -190 488 -190 ct 493 -190 497 -189 501 -188 ct 
501 -160 l  497 -161 491 -162 484 -162 ct 472 -162 462 -156 455 -145 ct 448 -134 445 -118 445 -97 ct 
445 0 l  414 0 l  p ef
602 73 m  582 73 566 69 554 61 ct 542 53 534 42 531 27 ct 562 23 l  564 31 568 38 575 43 ct 
582 48 592 50 603 50 ct 634 50 649 32 649 -5 ct 649 -35 l  649 -35 l  643 -23 635 -14 625 -8 ct 
615 -2 603 1 589 1 ct 566 1 550 -7 539 -22 ct 528 -37 523 -61 523 -93 ct 523 -126 529 -150 540 -166 ct 
552 -181 569 -189 593 -189 ct 606 -189 617 -186 627 -180 ct 637 -174 644 -165 649 -154 ct 
650 -154 l  650 -158 650 -164 650 -173 ct 651 -181 651 -186 652 -187 ct 681 -187 l 
681 -181 680 -168 680 -148 ct 680 -6 l  680 47 654 73 602 73 ct p
649 -93 m  649 -108 647 -121 643 -132 ct 639 -143 633 -152 626 -157 ct 618 -163 610 -166 600 -166 ct 
584 -166 573 -160 566 -149 ct 558 -137 555 -119 555 -93 ct 555 -68 558 -50 565 -39 ct 
572 -28 583 -22 600 -22 ct 609 -22 618 -25 626 -31 ct 633 -36 639 -44 643 -55 ct 
647 -66 649 -79 649 -93 ct p ef
751 -87 m  751 -66 755 -49 764 -37 ct 773 -26 786 -20 802 -20 ct 816 -20 827 -23 835 -28 ct 
843 -34 848 -41 851 -49 ct 878 -41 l  867 -12 842 3 802 3 ct 775 3 754 -5 740 -22 ct 
725 -38 718 -62 718 -95 ct 718 -125 725 -149 740 -165 ct 754 -182 775 -190 801 -190 ct 
856 -190 883 -157 883 -91 ct 883 -87 l  751 -87 l  p
851 -111 m  850 -130 845 -145 836 -154 ct 828 -163 816 -167 801 -167 ct 786 -167 774 -162 765 -152 ct 
756 -142 752 -128 751 -111 ct 851 -111 l  p ef
922 0 m  922 -143 l  922 -157 921 -171 921 -187 ct 950 -187 l  951 -166 951 -153 951 -148 ct 
952 -148 l  957 -164 963 -175 969 -181 ct 976 -187 985 -190 996 -190 ct 1001 -190 1005 -189 1009 -188 ct 
1009 -160 l  1005 -161 999 -162 992 -162 ct 980 -162 970 -156 963 -145 ct 956 -134 953 -118 953 -97 ct 
953 0 l  922 0 l  p ef
pom
pum
14434 8170 t
29 0 m  29 -243 l  62 -243 l  62 -27 l  184 -27 l  184 0 l  29 0 l  p ef
243 -87 m  243 -66 247 -49 256 -37 ct 265 -26 278 -20 294 -20 ct 308 -20 319 -23 327 -28 ct 
335 -34 340 -41 343 -49 ct 370 -41 l  359 -12 334 3 294 3 ct 267 3 246 -5 232 -22 ct 
217 -38 210 -62 210 -95 ct 210 -125 217 -149 232 -165 ct 246 -182 267 -190 293 -190 ct 
348 -190 375 -157 375 -91 ct 375 -87 l  243 -87 l  p
343 -111 m  342 -130 337 -145 328 -154 ct 320 -163 308 -167 293 -167 ct 278 -167 266 -162 257 -152 ct 
248 -142 244 -128 243 -111 ct 343 -111 l  p ef
553 -52 m  553 -34 547 -21 533 -11 ct 520 -2 501 3 477 3 ct 454 3 436 -1 423 -8 ct 
411 -16 403 -28 399 -44 ct 426 -50 l  429 -39 434 -32 443 -27 ct 451 -22 463 -20 477 -20 ct 
493 -20 505 -22 512 -27 ct 519 -32 523 -40 523 -49 ct 523 -57 520 -63 515 -67 ct 
510 -72 502 -76 491 -79 ct 469 -84 l  451 -89 438 -93 430 -98 ct 423 -102 417 -108 413 -114 ct 
408 -120 406 -128 406 -137 ct 406 -154 412 -167 425 -176 ct 437 -185 454 -189 478 -189 ct 
498 -189 515 -185 527 -178 ct 539 -171 547 -159 550 -143 ct 522 -140 l  520 -148 516 -155 508 -159 ct 
501 -164 490 -166 478 -166 ct 464 -166 453 -164 447 -160 ct 440 -155 436 -149 436 -140 ct 
436 -135 438 -130 441 -127 ct 443 -124 447 -121 453 -118 ct 458 -116 470 -113 487 -108 ct 
504 -104 515 -100 523 -97 ct 530 -93 536 -90 540 -85 ct 544 -81 547 -76 550 -71 ct 
552 -65 553 -59 553 -52 ct p ef
731 -52 m  731 -34 725 -21 711 -11 ct 698 -2 679 3 655 3 ct 632 3 614 -1 601 -8 ct 
589 -16 581 -28 577 -44 ct 604 -50 l  607 -39 612 -32 621 -27 ct 629 -22 641 -20 655 -20 ct 
671 -20 683 -22 690 -27 ct 697 -32 701 -40 701 -49 ct 701 -57 698 -63 693 -67 ct 
688 -72 680 -76 669 -79 ct 647 -84 l  629 -89 616 -93 608 -98 ct 601 -102 595 -108 591 -114 ct 
586 -120 584 -128 584 -137 ct 584 -154 590 -167 603 -176 ct 615 -185 632 -189 656 -189 ct 
676 -189 693 -185 705 -178 ct 717 -171 725 -159 728 -143 ct 700 -140 l  698 -148 694 -155 686 -159 ct 
679 -164 668 -166 656 -166 ct 642 -166 631 -164 625 -160 ct 618 -155 614 -149 614 -140 ct 
614 -135 616 -130 619 -127 ct 621 -124 625 -121 631 -118 ct 636 -116 648 -113 665 -108 ct 
682 -104 693 -100 701 -97 ct 708 -93 714 -90 718 -85 ct 722 -81 725 -76 728 -71 ct 
730 -65 731 -59 731 -52 ct p ef
pom
pum
14076 8564 t
48 -87 m  48 -66 52 -49 61 -37 ct 70 -26 83 -20 99 -20 ct 113 -20 124 -23 132 -28 ct 
140 -34 145 -41 148 -49 ct 175 -41 l  164 -12 139 3 99 3 ct 72 3 51 -5 37 -22 ct 
22 -38 15 -62 15 -95 ct 15 -125 22 -149 37 -165 ct 51 -182 72 -190 98 -190 ct 153 -190 180 -157 180 -91 ct 
180 -87 l  48 -87 l  p
148 -111 m  147 -130 142 -145 133 -154 ct 125 -163 113 -167 98 -167 ct 83 -167 71 -162 62 -152 ct 
53 -142 49 -128 48 -111 ct 148 -111 l  p ef
257 -164 m  257 0 l  226 0 l  226 -164 l  200 -164 l  200 -187 l  226 -187 l 
226 -208 l  226 -225 230 -237 237 -244 ct 245 -251 256 -255 272 -255 ct 280 -255 288 -254 294 -253 ct 
294 -230 l  288 -231 284 -231 280 -231 ct 272 -231 266 -229 263 -225 ct 259 -221 257 -214 257 -203 ct 
257 -187 l  294 -187 l  294 -164 l  257 -164 l  p ef
350 -164 m  350 0 l  319 0 l  319 -164 l  293 -164 l  293 -187 l  319 -187 l 
319 -208 l  319 -225 323 -237 330 -244 ct 338 -251 349 -255 365 -255 ct 373 -255 381 -254 387 -253 ct 
387 -230 l  381 -231 377 -231 373 -231 ct 365 -231 359 -229 356 -225 ct 352 -221 350 -214 350 -203 ct 
350 -187 l  387 -187 l  387 -164 l  350 -164 l  p ef
408 -226 m  408 -256 l  440 -256 l  440 -226 l  408 -226 l  p
408 0 m  408 -187 l  440 -187 l  440 0 l  408 0 l  p ef
508 -94 m  508 -69 512 -51 520 -39 ct 528 -27 540 -21 556 -21 ct 567 -21 576 -24 584 -30 ct 
591 -36 596 -45 597 -58 ct 629 -56 l  626 -38 619 -24 606 -13 ct 593 -2 576 3 557 3 ct 
530 3 510 -5 497 -22 ct 483 -38 476 -62 476 -94 ct 476 -125 483 -149 497 -165 ct 
511 -182 530 -190 556 -190 ct 575 -190 591 -185 604 -175 ct 616 -165 624 -152 628 -134 ct 
596 -132 l  594 -142 590 -151 583 -157 ct 577 -163 568 -166 555 -166 ct 539 -166 527 -161 520 -150 ct 
512 -139 508 -120 508 -94 ct p ef
662 -226 m  662 -256 l  694 -256 l  694 -226 l  662 -226 l  p
662 0 m  662 -187 l  694 -187 l  694 0 l  662 0 l  p ef
763 -87 m  763 -66 767 -49 776 -37 ct 785 -26 798 -20 814 -20 ct 828 -20 839 -23 847 -28 ct 
855 -34 860 -41 863 -49 ct 890 -41 l  879 -12 854 3 814 3 ct 787 3 766 -5 752 -22 ct 
737 -38 730 -62 730 -95 ct 730 -125 737 -149 752 -165 ct 766 -182 787 -190 813 -190 ct 
868 -190 895 -157 895 -91 ct 895 -87 l  763 -87 l  p
863 -111 m  862 -130 857 -145 848 -154 ct 840 -163 828 -167 813 -167 ct 798 -167 786 -162 777 -152 ct 
768 -142 764 -128 763 -111 ct 863 -111 l  p ef
1052 0 m  1052 -118 l  1052 -131 1051 -140 1048 -147 ct 1046 -154 1042 -159 1037 -162 ct 
1032 -165 1024 -166 1014 -166 ct 999 -166 987 -161 978 -151 ct 970 -140 965 -126 965 -108 ct 
965 0 l  934 0 l  934 -147 l  934 -169 934 -182 933 -187 ct 963 -187 l  963 -186 963 -185 963 -182 ct 
963 -180 963 -177 963 -173 ct 964 -170 964 -164 964 -155 ct 965 -155 l  972 -168 980 -177 989 -182 ct 
999 -187 1010 -190 1024 -190 ct 1045 -190 1059 -185 1069 -175 ct 1078 -165 1083 -148 1083 -124 ct 
1083 0 l  1052 0 l  p ef
1152 -94 m  1152 -69 1156 -51 1164 -39 ct 1172 -27 1184 -21 1200 -21 ct 1211 -21 1220 -24 1228 -30 ct 
1235 -36 1240 -45 1241 -58 ct 1273 -56 l  1270 -38 1263 -24 1250 -13 ct 1237 -2 1220 3 1201 3 ct 
1174 3 1154 -5 1141 -22 ct 1127 -38 1120 -62 1120 -94 ct 1120 -125 1127 -149 1141 -165 ct 
1155 -182 1174 -190 1200 -190 ct 1219 -190 1235 -185 1248 -175 ct 1260 -165 1268 -152 1272 -134 ct 
1240 -132 l  1238 -142 1234 -151 1227 -157 ct 1221 -163 1212 -166 1199 -166 ct 
1183 -166 1171 -161 1164 -150 ct 1156 -139 1152 -120 1152 -94 ct p ef
1316 73 m  1307 73 1300 72 1295 71 ct 1295 48 l  1299 49 1304 49 1309 49 ct 
1328 49 1344 35 1355 7 ct 1358 -1 l  1284 -187 l  1317 -187 l  1356 -84 l 
1357 -82 1358 -80 1359 -78 ct 1359 -76 1362 -68 1366 -55 ct 1371 -42 1373 -35 1373 -34 ct 
1386 -68 l  1427 -187 l  1459 -187 l  1387 0 l  1380 20 1372 35 1366 44 ct 
1359 54 1352 61 1344 66 ct 1335 71 1326 73 1316 73 ct p ef
pom
gs
0.996 c 12936 7601 m  11697 7601 l  11697 7727 l  11284 7474 l  11697 7219 l 
11697 7347 l  12936 7347 l  12936 7601 l  p
11284 7727 m  11284 7727 l  p
12936 7219 m  12936 7219 l  p ef
gr
gs
0 lw 1 lj 12936 7600 m  11697 7600 l  11697 7727 l  11284 7473 l  11697 7218 l 
11697 7346 l  12936 7346 l  12936 7600 l  pc
gr
gs
0 lw 1 lj 11284 7727 m  11284 7727 l  pc
gr
gs
0 lw 1 lj 12936 7218 m  12936 7218 l  pc
gr
pum
7886 7449 t
87 -303 m  87 -176 l  276 -176 l  276 -138 l  87 -138 l  87 0 l  41 0 l 
41 -340 l  282 -340 l  282 -303 l  87 -303 l  p ef
334 -317 m  334 -358 l  378 -358 l  378 -317 l  334 -317 l  p
334 0 m  334 -261 l  378 -261 l  378 0 l  334 0 l  p ef
604 0 m  534 -107 l  463 0 l  417 0 l  509 -134 l  421 -261 l  469 -261 l 
534 -159 l  599 -261 l  647 -261 l  559 -135 l  653 0 l  604 0 l  p ef
1107 -94 m  1107 -62 1095 -38 1070 -21 ct 1046 -4 1011 5 967 5 ct 884 5 836 -24 822 -81 ct 
867 -90 l  872 -70 883 -55 900 -45 ct 917 -36 940 -31 968 -31 ct 998 -31 1021 -36 1037 -46 ct 
1054 -57 1062 -72 1062 -91 ct 1062 -102 1059 -111 1054 -118 ct 1049 -125 1042 -131 1033 -135 ct 
1024 -140 1013 -144 1000 -147 ct 987 -150 973 -153 958 -157 ct 931 -163 910 -169 896 -175 ct 
882 -181 871 -187 863 -195 ct 855 -202 849 -210 845 -220 ct 841 -230 838 -241 838 -254 ct 
838 -283 850 -306 872 -321 ct 894 -337 926 -345 968 -345 ct 1006 -345 1036 -339 1056 -327 ct 
1077 -315 1091 -295 1099 -267 ct 1054 -259 l  1049 -277 1039 -290 1025 -298 ct 
1011 -306 992 -310 967 -310 ct 940 -310 919 -306 905 -297 ct 890 -288 883 -274 883 -256 ct 
883 -246 886 -237 892 -230 ct 897 -224 905 -218 916 -213 ct 926 -208 947 -202 978 -196 ct 
989 -193 999 -191 1010 -188 ct 1020 -186 1030 -183 1039 -179 ct 1049 -176 1058 -172 1066 -167 ct 
1074 -162 1082 -157 1088 -150 ct 1094 -143 1099 -135 1102 -126 ct 1106 -117 1107 -106 1107 -94 ct 
p ef
1197 -122 m  1197 -92 1203 -69 1215 -52 ct 1228 -36 1246 -28 1270 -28 ct 1288 -28 1303 -32 1315 -39 ct 
1326 -47 1334 -56 1338 -68 ct 1376 -57 l  1360 -16 1325 5 1270 5 ct 1231 5 1202 -7 1181 -30 ct 
1161 -53 1151 -87 1151 -132 ct 1151 -175 1161 -208 1181 -231 ct 1202 -254 1230 -266 1268 -266 ct 
1345 -266 1383 -220 1383 -128 ct 1383 -122 l  1197 -122 l  p
1338 -155 m  1336 -182 1329 -202 1317 -215 ct 1306 -228 1289 -234 1267 -234 ct 
1246 -234 1229 -227 1217 -213 ct 1205 -199 1198 -180 1197 -155 ct 1338 -155 l 
p ef
1471 -132 m  1471 -97 1477 -71 1488 -54 ct 1499 -37 1515 -29 1537 -29 ct 1553 -29 1566 -33 1576 -42 ct 
1586 -50 1593 -63 1595 -80 ct 1639 -77 l  1636 -52 1625 -32 1607 -17 ct 1589 -2 1566 5 1538 5 ct 
1502 5 1474 -7 1455 -30 ct 1436 -53 1426 -86 1426 -131 ct 1426 -175 1436 -208 1455 -231 ct 
1474 -254 1502 -266 1538 -266 ct 1565 -266 1587 -259 1604 -245 ct 1622 -232 1633 -213 1638 -188 ct 
1593 -185 l  1591 -199 1585 -211 1576 -219 ct 1567 -228 1554 -232 1537 -232 ct 
1514 -232 1497 -224 1487 -209 ct 1476 -194 1471 -168 1471 -132 ct p ef
1731 -261 m  1731 -96 l  1731 -79 1732 -65 1736 -56 ct 1739 -46 1745 -39 1752 -35 ct 
1759 -31 1770 -29 1785 -29 ct 1806 -29 1822 -36 1834 -50 ct 1846 -65 1852 -85 1852 -110 ct 
1852 -261 l  1896 -261 l  1896 -56 l  1896 -25 1896 -7 1897 0 ct 1856 0 l 
1856 -1 1856 -3 1856 -7 ct 1856 -10 1855 -14 1855 -19 ct 1855 -23 1855 -32 1854 -45 ct 
1854 -45 l  1844 -27 1832 -14 1819 -6 ct 1806 1 1789 5 1770 5 ct 1741 5 1720 -2 1707 -16 ct 
1694 -31 1687 -54 1687 -87 ct 1687 -261 l  1731 -261 l  p ef
1964 0 m  1964 -200 l  1964 -219 1964 -239 1963 -261 ct 2004 -261 l  2005 -232 2006 -214 2006 -208 ct 
2007 -208 l  2014 -230 2022 -246 2031 -254 ct 2040 -262 2053 -266 2069 -266 ct 
2075 -266 2081 -265 2087 -264 ct 2087 -224 l  2081 -225 2073 -226 2064 -226 ct 
2045 -226 2032 -218 2022 -203 ct 2013 -187 2008 -165 2008 -136 ct 2008 0 l  1964 0 l 
p ef
2129 -317 m  2129 -358 l  2173 -358 l  2173 -317 l  2129 -317 l  p
2129 0 m  2129 -261 l  2173 -261 l  2173 0 l  2129 0 l  p ef
2339 -2 m  2325 2 2310 4 2296 4 ct 2261 4 2244 -16 2244 -55 ct 2244 -229 l  2213 -229 l 
2213 -261 l  2245 -261 l  2258 -319 l  2287 -319 l  2287 -261 l  2335 -261 l 
2335 -229 l  2287 -229 l  2287 -65 l  2287 -52 2289 -44 2293 -39 ct 2297 -34 2304 -31 2314 -31 ct 
2320 -31 2328 -32 2339 -34 ct 2339 -2 l  p ef
2391 103 m  2379 103 2369 102 2361 100 ct 2361 68 l  2367 69 2374 69 2381 69 ct 
2408 69 2430 49 2446 9 ct 2450 -1 l  2346 -261 l  2393 -261 l  2448 -117 l 
2448 -115 2449 -112 2450 -109 ct 2452 -106 2455 -95 2461 -77 ct 2467 -59 2471 -49 2471 -47 ct 
2488 -95 l  2545 -261 l  2591 -261 l  2491 0 l  2480 28 2470 49 2461 62 ct 
2451 76 2441 86 2430 93 ct 2418 100 2405 103 2391 103 ct p ef
pom
pum
7064 8003 t
364 0 m  309 0 l  250 -216 l  247 -229 241 -254 234 -289 ct 229 -270 226 -254 223 -242 ct 
220 -229 198 -149 157 0 ct 102 0 l  2 -340 l  50 -340 l  111 -124 l  118 -97 125 -69 131 -41 ct 
135 -58 139 -78 145 -98 ct 150 -119 172 -200 211 -340 ct 256 -340 l  315 -128 l 
324 -94 331 -65 336 -41 ct 338 -49 l  342 -67 346 -83 349 -94 ct 351 -106 374 -188 416 -340 ct 
464 -340 l  364 0 l  p ef
711 -131 m  711 -85 701 -51 681 -29 ct 661 -6 632 5 593 5 ct 555 5 526 -7 507 -30 ct 
488 -53 478 -87 478 -131 ct 478 -221 517 -266 595 -266 ct 635 -266 664 -255 683 -233 ct 
702 -211 711 -177 711 -131 ct p
666 -131 m  666 -167 660 -193 650 -209 ct 639 -226 621 -234 596 -234 ct 570 -234 552 -226 540 -209 ct 
529 -192 523 -166 523 -131 ct 523 -96 529 -70 540 -53 ct 551 -36 569 -27 593 -27 ct 
619 -27 638 -35 649 -52 ct 660 -69 666 -95 666 -131 ct p ef
766 0 m  766 -200 l  766 -219 766 -239 765 -261 ct 806 -261 l  807 -232 808 -214 808 -208 ct 
809 -208 l  816 -230 824 -246 833 -254 ct 842 -262 855 -266 871 -266 ct 877 -266 883 -265 889 -264 ct 
889 -224 l  883 -225 875 -226 866 -226 ct 847 -226 834 -218 824 -203 ct 815 -187 810 -165 810 -136 ct 
810 0 l  766 0 l  p ef
1126 -72 m  1126 -47 1117 -28 1098 -15 ct 1080 -2 1054 5 1020 5 ct 988 5 963 0 945 -11 ct 
928 -22 916 -38 911 -61 ct 949 -69 l  953 -55 960 -44 972 -38 ct 984 -31 1000 -28 1020 -28 ct 
1042 -28 1058 -31 1069 -38 ct 1079 -45 1084 -55 1084 -69 ct 1084 -79 1080 -87 1073 -94 ct 
1066 -100 1055 -105 1039 -110 ct 1008 -118 l  983 -124 965 -131 955 -137 ct 
944 -143 936 -150 930 -159 ct 924 -168 921 -179 921 -192 ct 921 -216 930 -234 947 -246 ct 
964 -259 988 -265 1021 -265 ct 1050 -265 1072 -260 1089 -250 ct 1106 -240 1117 -223 1122 -201 ct 
1082 -196 l  1080 -208 1074 -217 1063 -223 ct 1053 -229 1038 -232 1021 -232 ct 
1001 -232 987 -229 977 -223 ct 968 -217 963 -208 963 -196 ct 963 -189 965 -183 969 -178 ct 
973 -173 979 -169 986 -166 ct 994 -162 1010 -158 1034 -152 ct 1057 -146 1074 -140 1084 -136 ct 
1094 -131 1102 -125 1108 -119 ct 1114 -113 1118 -106 1121 -99 ct 1125 -91 1126 -82 1126 -72 ct 
p ef
1214 -122 m  1214 -92 1220 -69 1232 -52 ct 1245 -36 1263 -28 1287 -28 ct 1305 -28 1320 -32 1332 -39 ct 
1343 -47 1351 -56 1355 -68 ct 1393 -57 l  1377 -16 1342 5 1287 5 ct 1248 5 1219 -7 1198 -30 ct 
1178 -53 1168 -87 1168 -132 ct 1168 -175 1178 -208 1198 -231 ct 1219 -254 1247 -266 1285 -266 ct 
1362 -266 1400 -220 1400 -128 ct 1400 -122 l  1214 -122 l  p
1355 -155 m  1353 -182 1346 -202 1334 -215 ct 1323 -228 1306 -234 1284 -234 ct 
1263 -234 1246 -227 1234 -213 ct 1222 -199 1215 -180 1214 -155 ct 1355 -155 l 
p ef
1753 -308 m  1716 -308 1686 -296 1665 -272 ct 1644 -247 1634 -214 1634 -172 ct 
1634 -130 1645 -96 1667 -71 ct 1688 -46 1718 -33 1755 -33 ct 1803 -33 1839 -57 1863 -104 ct 
1900 -85 l  1886 -56 1867 -33 1841 -18 ct 1816 -3 1786 5 1753 5 ct 1719 5 1689 -2 1664 -16 ct 
1639 -31 1620 -51 1607 -77 ct 1594 -104 1587 -135 1587 -171 ct 1587 -226 1602 -268 1631 -299 ct 
1660 -330 1701 -345 1753 -345 ct 1789 -345 1819 -338 1843 -324 ct 1868 -310 1886 -288 1897 -261 ct 
1853 -246 l  1845 -266 1833 -281 1815 -292 ct 1798 -303 1777 -308 1753 -308 ct 
p ef
2172 -131 m  2172 -85 2162 -51 2142 -29 ct 2122 -6 2093 5 2054 5 ct 2016 5 1987 -7 1968 -30 ct 
1949 -53 1939 -87 1939 -131 ct 1939 -221 1978 -266 2056 -266 ct 2096 -266 2125 -255 2144 -233 ct 
2163 -211 2172 -177 2172 -131 ct p
2127 -131 m  2127 -167 2121 -193 2111 -209 ct 2100 -226 2082 -234 2057 -234 ct 
2031 -234 2013 -226 2001 -209 ct 1990 -192 1984 -166 1984 -131 ct 1984 -96 1990 -70 2001 -53 ct 
2012 -36 2030 -27 2054 -27 ct 2080 -27 2099 -35 2110 -52 ct 2121 -69 2127 -95 2127 -131 ct 
p ef
2227 0 m  2227 -200 l  2227 -219 2227 -239 2226 -261 ct 2267 -261 l  2268 -232 2269 -214 2269 -208 ct 
2270 -208 l  2277 -230 2285 -246 2294 -254 ct 2303 -262 2316 -266 2332 -266 ct 
2338 -266 2344 -265 2350 -264 ct 2350 -224 l  2344 -225 2336 -226 2327 -226 ct 
2308 -226 2295 -218 2285 -203 ct 2276 -187 2271 -165 2271 -136 ct 2271 0 l  2227 0 l 
p ef
2392 0 m  2392 -200 l  2392 -219 2392 -239 2391 -261 ct 2432 -261 l  2433 -232 2434 -214 2434 -208 ct 
2435 -208 l  2442 -230 2450 -246 2459 -254 ct 2468 -262 2481 -266 2497 -266 ct 
2503 -266 2509 -265 2515 -264 ct 2515 -224 l  2509 -225 2501 -226 2492 -226 ct 
2473 -226 2460 -218 2450 -203 ct 2441 -187 2436 -165 2436 -136 ct 2436 0 l  2392 0 l 
p ef
2590 -122 m  2590 -92 2596 -69 2608 -52 ct 2621 -36 2639 -28 2663 -28 ct 2681 -28 2696 -32 2708 -39 ct 
2719 -47 2727 -56 2731 -68 ct 2769 -57 l  2753 -16 2718 5 2663 5 ct 2624 5 2595 -7 2574 -30 ct 
2554 -53 2544 -87 2544 -132 ct 2544 -175 2554 -208 2574 -231 ct 2595 -254 2623 -266 2661 -266 ct 
2738 -266 2776 -220 2776 -128 ct 2776 -122 l  2590 -122 l  p
2731 -155 m  2729 -182 2722 -202 2710 -215 ct 2699 -228 2682 -234 2660 -234 ct 
2639 -234 2622 -227 2610 -213 ct 2598 -199 2591 -180 2590 -155 ct 2731 -155 l 
p ef
2864 -132 m  2864 -97 2870 -71 2881 -54 ct 2892 -37 2908 -29 2930 -29 ct 2946 -29 2959 -33 2969 -42 ct 
2979 -50 2986 -63 2988 -80 ct 3032 -77 l  3029 -52 3018 -32 3000 -17 ct 2982 -2 2959 5 2931 5 ct 
2895 5 2867 -7 2848 -30 ct 2829 -53 2819 -86 2819 -131 ct 2819 -175 2829 -208 2848 -231 ct 
2867 -254 2895 -266 2931 -266 ct 2958 -266 2980 -259 2997 -245 ct 3015 -232 3026 -213 3031 -188 ct 
2986 -185 l  2984 -199 2978 -211 2969 -219 ct 2960 -228 2947 -232 2930 -232 ct 
2907 -232 2890 -224 2880 -209 ct 2869 -194 2864 -168 2864 -132 ct p ef
3181 -2 m  3167 2 3152 4 3138 4 ct 3103 4 3086 -16 3086 -55 ct 3086 -229 l  3055 -229 l 
3055 -261 l  3087 -261 l  3100 -319 l  3129 -319 l  3129 -261 l  3177 -261 l 
3177 -229 l  3129 -229 l  3129 -65 l  3129 -52 3131 -44 3135 -39 ct 3139 -34 3146 -31 3156 -31 ct 
3162 -31 3170 -32 3181 -34 ct 3181 -2 l  p ef
3387 0 m  3387 -165 l  3387 -182 3386 -196 3382 -205 ct 3379 -215 3373 -222 3366 -226 ct 
3359 -230 3348 -232 3333 -232 ct 3312 -232 3296 -225 3284 -211 ct 3272 -196 3266 -176 3266 -151 ct 
3266 0 l  3222 0 l  3222 -205 l  3222 -236 3222 -254 3221 -261 ct 3262 -261 l 
3262 -260 3262 -258 3262 -255 ct 3262 -251 3263 -247 3263 -242 ct 3263 -238 3263 -229 3264 -217 ct 
3264 -217 l  3274 -235 3286 -247 3299 -255 ct 3312 -262 3329 -266 3348 -266 ct 
3377 -266 3398 -259 3411 -245 ct 3424 -230 3431 -207 3431 -174 ct 3431 0 l  3387 0 l 
p ef
3530 -122 m  3530 -92 3536 -69 3548 -52 ct 3561 -36 3579 -28 3603 -28 ct 3621 -28 3636 -32 3648 -39 ct 
3659 -47 3667 -56 3671 -68 ct 3709 -57 l  3693 -16 3658 5 3603 5 ct 3564 5 3535 -7 3514 -30 ct 
3494 -53 3484 -87 3484 -132 ct 3484 -175 3494 -208 3514 -231 ct 3535 -254 3563 -266 3601 -266 ct 
3678 -266 3716 -220 3716 -128 ct 3716 -122 l  3530 -122 l  p
3671 -155 m  3669 -182 3662 -202 3650 -215 ct 3639 -228 3622 -234 3600 -234 ct 
3579 -234 3562 -227 3550 -213 ct 3538 -199 3531 -180 3530 -155 ct 3671 -155 l 
p ef
3967 -72 m  3967 -47 3958 -28 3939 -15 ct 3921 -2 3895 5 3861 5 ct 3829 5 3804 0 3786 -11 ct 
3769 -22 3757 -38 3752 -61 ct 3790 -69 l  3794 -55 3801 -44 3813 -38 ct 3825 -31 3841 -28 3861 -28 ct 
3883 -28 3899 -31 3910 -38 ct 3920 -45 3925 -55 3925 -69 ct 3925 -79 3921 -87 3914 -94 ct 
3907 -100 3896 -105 3880 -110 ct 3849 -118 l  3824 -124 3806 -131 3796 -137 ct 
3785 -143 3777 -150 3771 -159 ct 3765 -168 3762 -179 3762 -192 ct 3762 -216 3771 -234 3788 -246 ct 
3805 -259 3829 -265 3862 -265 ct 3891 -265 3913 -260 3930 -250 ct 3947 -240 3958 -223 3963 -201 ct 
3923 -196 l  3921 -208 3915 -217 3904 -223 ct 3894 -229 3879 -232 3862 -232 ct 
3842 -232 3828 -229 3818 -223 ct 3809 -217 3804 -208 3804 -196 ct 3804 -189 3806 -183 3810 -178 ct 
3814 -173 3820 -169 3827 -166 ct 3835 -162 3851 -158 3875 -152 ct 3898 -146 3915 -140 3925 -136 ct 
3935 -131 3943 -125 3949 -119 ct 3955 -113 3959 -106 3962 -99 ct 3966 -91 3967 -82 3967 -72 ct 
p ef
4217 -72 m  4217 -47 4208 -28 4189 -15 ct 4171 -2 4145 5 4111 5 ct 4079 5 4054 0 4036 -11 ct 
4019 -22 4007 -38 4002 -61 ct 4040 -69 l  4044 -55 4051 -44 4063 -38 ct 4075 -31 4091 -28 4111 -28 ct 
4133 -28 4149 -31 4160 -38 ct 4170 -45 4175 -55 4175 -69 ct 4175 -79 4171 -87 4164 -94 ct 
4157 -100 4146 -105 4130 -110 ct 4099 -118 l  4074 -124 4056 -131 4046 -137 ct 
4035 -143 4027 -150 4021 -159 ct 4015 -168 4012 -179 4012 -192 ct 4012 -216 4021 -234 4038 -246 ct 
4055 -259 4079 -265 4112 -265 ct 4141 -265 4163 -260 4180 -250 ct 4197 -240 4208 -223 4213 -201 ct 
4173 -196 l  4171 -208 4165 -217 4154 -223 ct 4144 -229 4129 -232 4112 -232 ct 
4092 -232 4078 -229 4068 -223 ct 4059 -217 4054 -208 4054 -196 ct 4054 -189 4056 -183 4060 -178 ct 
4064 -173 4070 -169 4077 -166 ct 4085 -162 4101 -158 4125 -152 ct 4148 -146 4165 -140 4175 -136 ct 
4185 -131 4193 -125 4199 -119 ct 4205 -113 4209 -106 4212 -99 ct 4216 -91 4217 -82 4217 -72 ct 
p ef
pom
gs
12246 6688 m 13463 6688 l 13463 7077 l 12246 7077 l 12246 6688 l eoclip newpath
pum
12354 7006 t
73 -18 m  81 -18 89 -19 97 -22 ct 105 -24 112 -27 118 -31 ct 139 -148 l  127 -151 115 -152 103 -152 ct 
92 -152 81 -148 72 -140 ct 63 -131 55 -120 50 -105 ct 45 -91 42 -75 42 -59 ct 42 -46 45 -35 50 -29 ct 
55 -22 63 -18 73 -18 ct p
117 -18 m  108 -12 98 -6 88 -2 ct 79 1 69 3 61 3 ct 45 3 33 -1 24 -11 ct 16 -21 12 -35 12 -55 ct 
12 -75 16 -94 24 -111 ct 33 -129 44 -142 60 -151 ct 75 -161 92 -165 111 -165 ct 
119 -165 129 -165 141 -163 ct 153 -162 162 -160 170 -158 ct 129 63 l  150 67 l 
149 75 l  98 75 l  110 9 l  112 -1 114 -10 117 -18 ct p ef
pom
pum
12595 7006 t
67 -7 m  67 8 62 20 52 31 ct 43 41 29 49 12 54 ct 12 41 l  33 34 44 24 44 12 ct 
44 9 43 6 41 5 ct 39 3 36 2 33 0 ct 31 -2 28 -4 26 -6 ct 24 -9 22 -12 22 -17 ct 22 -23 24 -28 28 -31 ct 
32 -35 37 -36 43 -36 ct 51 -36 56 -34 60 -28 ct 64 -23 67 -16 67 -7 ct p ef
pom
pum
12729 7006 t
131 -128 m  131 -133 130 -138 127 -141 ct 124 -144 120 -146 114 -146 ct 105 -146 96 -142 86 -135 ct 
76 -128 67 -119 61 -108 ct 42 0 l  13 0 l  39 -149 l  19 -154 l  20 -161 l 
68 -161 l  64 -128 l  74 -141 84 -150 94 -156 ct 104 -162 115 -165 125 -165 ct 
137 -165 145 -162 151 -156 ct 157 -150 160 -141 160 -129 ct 160 -128 160 -125 159 -122 ct 
159 -119 153 -82 140 -12 ct 163 -8 l  162 0 l  110 0 l  127 -100 l  130 -114 131 -124 131 -128 ct 
p ef
pom
pum
12944 7006 t
67 -7 m  67 8 62 20 52 31 ct 43 41 29 49 12 54 ct 12 41 l  33 34 44 24 44 12 ct 
44 9 43 6 41 5 ct 39 3 36 2 33 0 ct 31 -2 28 -4 26 -6 ct 24 -9 22 -12 22 -17 ct 22 -23 24 -28 28 -31 ct 
32 -35 37 -36 43 -36 ct 51 -36 56 -34 60 -28 ct 64 -23 67 -16 67 -7 ct p ef
pom
pum
13078 7006 t
111 -6 m  128 -6 143 -11 155 -21 ct 167 -31 177 -47 184 -67 ct 193 -93 195 -114 189 -130 ct 
183 -146 171 -154 152 -154 ct 136 -154 121 -148 108 -137 ct 95 -126 85 -110 78 -90 ct 
69 -65 68 -45 74 -29 ct 80 -14 92 -6 111 -6 ct p
204 -141 m  215 -134 222 -126 225 -115 ct 228 -105 227 -93 222 -78 ct 214 -54 198 -35 176 -20 ct 
154 -5 129 3 101 3 ct 75 3 56 -5 45 -20 ct 33 -35 32 -54 40 -77 ct 48 -103 64 -123 87 -138 ct 
109 -154 135 -161 163 -161 ct 169 -161 180 -161 195 -160 ct 211 -159 224 -159 234 -159 ct 
243 -159 251 -160 256 -161 ct 261 -163 265 -165 266 -168 ct 273 -168 l  268 -157 264 -150 258 -146 ct 
253 -142 244 -140 233 -140 ct 231 -140 228 -140 225 -140 ct 221 -141 215 -141 205 -142 ct 
205 -142 204 -142 204 -142 ct 204 -141 204 -141 204 -141 ct p ef
pom
gr
pum
11028 7029 t
219 -67 m  219 -45 210 -28 193 -15 ct 175 -3 150 3 119 3 ct 60 3 25 -18 16 -59 ct 
48 -65 l  52 -51 59 -40 71 -33 ct 83 -26 99 -23 120 -23 ct 141 -23 157 -27 169 -34 ct 
180 -41 186 -52 186 -66 ct 186 -73 184 -80 181 -85 ct 177 -90 172 -94 166 -97 ct 
159 -100 151 -103 142 -105 ct 133 -107 123 -110 112 -112 ct 93 -116 78 -121 69 -125 ct 
59 -129 51 -134 45 -139 ct 39 -144 35 -150 32 -157 ct 29 -164 27 -172 27 -181 ct 
27 -202 35 -218 51 -229 ct 67 -240 90 -246 119 -246 ct 147 -246 168 -242 183 -233 ct 
197 -225 207 -210 213 -190 ct 181 -184 l  177 -197 170 -207 160 -212 ct 151 -218 137 -221 119 -221 ct 
100 -221 85 -218 75 -211 ct 65 -205 59 -196 59 -183 ct 59 -176 61 -169 65 -165 ct 
69 -160 75 -156 82 -152 ct 90 -149 105 -145 127 -140 ct 134 -138 142 -136 149 -134 ct 
157 -133 164 -131 171 -128 ct 177 -126 184 -123 190 -119 ct 195 -116 201 -112 205 -107 ct 
209 -102 213 -97 215 -90 ct 218 -84 219 -76 219 -67 ct p ef
365 0 m  365 -118 l  365 -136 363 -149 358 -156 ct 353 -163 344 -166 331 -166 ct 
318 -166 308 -161 300 -151 ct 292 -141 288 -126 288 -108 ct 288 0 l  257 0 l 
257 -147 l  257 -169 257 -182 256 -187 ct 286 -187 l  286 -186 286 -185 286 -182 ct 
286 -180 286 -177 287 -173 ct 287 -170 287 -164 287 -155 ct 288 -155 l  294 -168 302 -177 311 -182 ct 
319 -187 330 -190 342 -190 ct 356 -190 367 -187 376 -182 ct 384 -176 390 -167 393 -155 ct 
393 -155 l  400 -167 408 -176 417 -182 ct 426 -187 437 -190 450 -190 ct 469 -190 482 -185 491 -175 ct 
499 -164 504 -148 504 -124 ct 504 0 l  473 0 l  473 -118 l  473 -136 471 -149 466 -156 ct 
461 -163 452 -166 439 -166 ct 425 -166 415 -161 407 -151 ct 400 -141 396 -127 396 -108 ct 
396 0 l  365 0 l  p ef
596 3 m  578 3 563 -2 554 -12 ct 545 -22 540 -35 540 -52 ct 540 -72 546 -86 559 -97 ct 
572 -107 592 -113 620 -113 ct 662 -114 l  662 -124 l  662 -140 659 -150 652 -157 ct 
646 -164 636 -167 622 -167 ct 608 -167 598 -165 592 -160 ct 586 -155 582 -147 581 -137 ct 
548 -140 l  554 -173 578 -190 623 -190 ct 646 -190 664 -185 676 -174 ct 688 -163 693 -148 693 -127 ct 
693 -47 l  693 -38 695 -31 697 -26 ct 699 -21 704 -19 711 -19 ct 714 -19 717 -19 721 -20 ct 
721 -1 l  713 1 705 2 697 2 ct 686 2 677 -1 672 -7 ct 667 -13 664 -23 663 -36 ct 
662 -36 l  654 -22 645 -12 634 -6 ct 624 0 611 3 596 3 ct p
603 -20 m  615 -20 625 -23 634 -28 ct 642 -33 649 -40 654 -49 ct 660 -58 662 -67 662 -77 ct 
662 -92 l  628 -91 l  614 -91 603 -90 595 -87 ct 588 -84 582 -80 578 -74 ct 
574 -68 572 -61 572 -52 ct 572 -42 575 -34 580 -28 ct 585 -23 593 -20 603 -20 ct 
p ef
744 0 m  744 -256 l  775 -256 l  775 0 l  744 0 l  p ef
820 0 m  820 -256 l  851 -256 l  851 0 l  820 0 l  p ef
920 -87 m  920 -66 924 -49 933 -37 ct 942 -26 955 -20 971 -20 ct 985 -20 996 -23 1004 -28 ct 
1012 -34 1017 -41 1020 -49 ct 1047 -41 l  1036 -12 1011 3 971 3 ct 944 3 923 -5 909 -22 ct 
894 -38 887 -62 887 -95 ct 887 -125 894 -149 909 -165 ct 923 -182 944 -190 970 -190 ct 
1025 -190 1052 -157 1052 -91 ct 1052 -87 l  920 -87 l  p
1020 -111 m  1019 -130 1014 -145 1005 -154 ct 997 -163 985 -167 970 -167 ct 
955 -167 943 -162 934 -152 ct 925 -142 921 -128 920 -111 ct 1020 -111 l  p ef
1092 0 m  1092 -143 l  1092 -157 1091 -171 1091 -187 ct 1120 -187 l  1121 -166 1121 -153 1121 -148 ct 
1122 -148 l  1127 -164 1133 -175 1139 -181 ct 1146 -187 1155 -190 1166 -190 ct 
1171 -190 1175 -189 1179 -188 ct 1179 -160 l  1175 -161 1169 -162 1162 -162 ct 
1150 -162 1140 -156 1133 -145 ct 1126 -134 1123 -118 1123 -97 ct 1123 0 l  1092 0 l 
p ef
pom
pum
11672 8170 t
216 -69 m  216 -47 209 -30 193 -18 ct 177 -6 155 0 127 0 ct 29 0 l  29 -243 l 
117 -243 l  174 -243 202 -223 202 -184 ct 202 -170 198 -158 190 -148 ct 182 -138 171 -132 156 -128 ct 
175 -126 190 -120 201 -109 ct 211 -98 216 -85 216 -69 ct p
169 -180 m  169 -194 165 -203 156 -209 ct 147 -214 134 -217 117 -217 ct 62 -217 l 
62 -140 l  117 -140 l  135 -140 148 -143 156 -150 ct 165 -157 169 -167 169 -180 ct 
p
183 -71 m  183 -100 163 -114 123 -114 ct 62 -114 l  62 -26 l  126 -26 l  146 -26 160 -30 169 -37 ct 
179 -45 183 -56 183 -71 ct p ef
281 -87 m  281 -66 285 -49 294 -37 ct 303 -26 316 -20 332 -20 ct 346 -20 357 -23 365 -28 ct 
373 -34 378 -41 381 -49 ct 408 -41 l  397 -12 372 3 332 3 ct 305 3 284 -5 270 -22 ct 
255 -38 248 -62 248 -95 ct 248 -125 255 -149 270 -165 ct 284 -182 305 -190 331 -190 ct 
386 -190 413 -157 413 -91 ct 413 -87 l  281 -87 l  p
381 -111 m  380 -130 375 -145 366 -154 ct 358 -163 346 -167 331 -167 ct 316 -167 304 -162 295 -152 ct 
286 -142 282 -128 281 -111 ct 381 -111 l  p ef
523 -1 m  513 2 503 3 492 3 ct 467 3 455 -11 455 -39 ct 455 -164 l  433 -164 l 
433 -187 l  456 -187 l  465 -229 l  486 -229 l  486 -187 l  520 -187 l 
520 -164 l  486 -164 l  486 -46 l  486 -37 487 -31 490 -27 ct 493 -24 498 -22 506 -22 ct 
510 -22 516 -23 523 -24 ct 523 -1 l  p ef
620 -1 m  610 2 600 3 589 3 ct 564 3 552 -11 552 -39 ct 552 -164 l  530 -164 l 
530 -187 l  553 -187 l  562 -229 l  583 -229 l  583 -187 l  617 -187 l 
617 -164 l  583 -164 l  583 -46 l  583 -37 584 -31 587 -27 ct 590 -24 595 -22 603 -22 ct 
607 -22 613 -23 620 -24 ct 620 -1 l  p ef
670 -87 m  670 -66 674 -49 683 -37 ct 692 -26 705 -20 721 -20 ct 735 -20 746 -23 754 -28 ct 
762 -34 767 -41 770 -49 ct 797 -41 l  786 -12 761 3 721 3 ct 694 3 673 -5 659 -22 ct 
644 -38 637 -62 637 -95 ct 637 -125 644 -149 659 -165 ct 673 -182 694 -190 720 -190 ct 
775 -190 802 -157 802 -91 ct 802 -87 l  670 -87 l  p
770 -111 m  769 -130 764 -145 755 -154 ct 747 -163 735 -167 720 -167 ct 705 -167 693 -162 684 -152 ct 
675 -142 671 -128 670 -111 ct 770 -111 l  p ef
842 0 m  842 -143 l  842 -157 841 -171 841 -187 ct 870 -187 l  871 -166 871 -153 871 -148 ct 
872 -148 l  877 -164 883 -175 889 -181 ct 896 -187 905 -190 916 -190 ct 921 -190 925 -189 929 -188 ct 
929 -160 l  925 -161 919 -162 912 -162 ct 900 -162 890 -156 883 -145 ct 876 -134 873 -118 873 -97 ct 
873 0 l  842 0 l  p ef
pom
pum
11409 8564 t
48 -87 m  48 -66 52 -49 61 -37 ct 70 -26 83 -20 99 -20 ct 113 -20 124 -23 132 -28 ct 
140 -34 145 -41 148 -49 ct 175 -41 l  164 -12 139 3 99 3 ct 72 3 51 -5 37 -22 ct 
22 -38 15 -62 15 -95 ct 15 -125 22 -149 37 -165 ct 51 -182 72 -190 98 -190 ct 153 -190 180 -157 180 -91 ct 
180 -87 l  48 -87 l  p
148 -111 m  147 -130 142 -145 133 -154 ct 125 -163 113 -167 98 -167 ct 83 -167 71 -162 62 -152 ct 
53 -142 49 -128 48 -111 ct 148 -111 l  p ef
257 -164 m  257 0 l  226 0 l  226 -164 l  200 -164 l  200 -187 l  226 -187 l 
226 -208 l  226 -225 230 -237 237 -244 ct 245 -251 256 -255 272 -255 ct 280 -255 288 -254 294 -253 ct 
294 -230 l  288 -231 284 -231 280 -231 ct 272 -231 266 -229 263 -225 ct 259 -221 257 -214 257 -203 ct 
257 -187 l  294 -187 l  294 -164 l  257 -164 l  p ef
350 -164 m  350 0 l  319 0 l  319 -164 l  293 -164 l  293 -187 l  319 -187 l 
319 -208 l  319 -225 323 -237 330 -244 ct 338 -251 349 -255 365 -255 ct 373 -255 381 -254 387 -253 ct 
387 -230 l  381 -231 377 -231 373 -231 ct 365 -231 359 -229 356 -225 ct 352 -221 350 -214 350 -203 ct 
350 -187 l  387 -187 l  387 -164 l  350 -164 l  p ef
408 -226 m  408 -256 l  440 -256 l  440 -226 l  408 -226 l  p
408 0 m  408 -187 l  440 -187 l  440 0 l  408 0 l  p ef
508 -94 m  508 -69 512 -51 520 -39 ct 528 -27 540 -21 556 -21 ct 567 -21 576 -24 584 -30 ct 
591 -36 596 -45 597 -58 ct 629 -56 l  626 -38 619 -24 606 -13 ct 593 -2 576 3 557 3 ct 
530 3 510 -5 497 -22 ct 483 -38 476 -62 476 -94 ct 476 -125 483 -149 497 -165 ct 
511 -182 530 -190 556 -190 ct 575 -190 591 -185 604 -175 ct 616 -165 624 -152 628 -134 ct 
596 -132 l  594 -142 590 -151 583 -157 ct 577 -163 568 -166 555 -166 ct 539 -166 527 -161 520 -150 ct 
512 -139 508 -120 508 -94 ct p ef
662 -226 m  662 -256 l  694 -256 l  694 -226 l  662 -226 l  p
662 0 m  662 -187 l  694 -187 l  694 0 l  662 0 l  p ef
763 -87 m  763 -66 767 -49 776 -37 ct 785 -26 798 -20 814 -20 ct 828 -20 839 -23 847 -28 ct 
855 -34 860 -41 863 -49 ct 890 -41 l  879 -12 854 3 814 3 ct 787 3 766 -5 752 -22 ct 
737 -38 730 -62 730 -95 ct 730 -125 737 -149 752 -165 ct 766 -182 787 -190 813 -190 ct 
868 -190 895 -157 895 -91 ct 895 -87 l  763 -87 l  p
863 -111 m  862 -130 857 -145 848 -154 ct 840 -163 828 -167 813 -167 ct 798 -167 786 -162 777 -152 ct 
768 -142 764 -128 763 -111 ct 863 -111 l  p ef
1052 0 m  1052 -118 l  1052 -131 1051 -140 1048 -147 ct 1046 -154 1042 -159 1037 -162 ct 
1032 -165 1024 -166 1014 -166 ct 999 -166 987 -161 978 -151 ct 970 -140 965 -126 965 -108 ct 
965 0 l  934 0 l  934 -147 l  934 -169 934 -182 933 -187 ct 963 -187 l  963 -186 963 -185 963 -182 ct 
963 -180 963 -177 963 -173 ct 964 -170 964 -164 964 -155 ct 965 -155 l  972 -168 980 -177 989 -182 ct 
999 -187 1010 -190 1024 -190 ct 1045 -190 1059 -185 1069 -175 ct 1078 -165 1083 -148 1083 -124 ct 
1083 0 l  1052 0 l  p ef
1152 -94 m  1152 -69 1156 -51 1164 -39 ct 1172 -27 1184 -21 1200 -21 ct 1211 -21 1220 -24 1228 -30 ct 
1235 -36 1240 -45 1241 -58 ct 1273 -56 l  1270 -38 1263 -24 1250 -13 ct 1237 -2 1220 3 1201 3 ct 
1174 3 1154 -5 1141 -22 ct 1127 -38 1120 -62 1120 -94 ct 1120 -125 1127 -149 1141 -165 ct 
1155 -182 1174 -190 1200 -190 ct 1219 -190 1235 -185 1248 -175 ct 1260 -165 1268 -152 1272 -134 ct 
1240 -132 l  1238 -142 1234 -151 1227 -157 ct 1221 -163 1212 -166 1199 -166 ct 
1183 -166 1171 -161 1164 -150 ct 1156 -139 1152 -120 1152 -94 ct p ef
1316 73 m  1307 73 1300 72 1295 71 ct 1295 48 l  1299 49 1304 49 1309 49 ct 
1328 49 1344 35 1355 7 ct 1358 -1 l  1284 -187 l  1317 -187 l  1356 -84 l 
1357 -82 1358 -80 1359 -78 ct 1359 -76 1362 -68 1366 -55 ct 1371 -42 1373 -35 1373 -34 ct 
1386 -68 l  1427 -187 l  1459 -187 l  1387 0 l  1380 20 1372 35 1366 44 ct 
1359 54 1352 61 1344 66 ct 1335 71 1326 73 1316 73 ct p ef
pom
0 2206 t 
pom
count op_count sub {pop} repeat countdictstack dict_count sub {end} repeat b4_inc_state restore
%%PageTrailer
%%Trailer
%%EOF
